{
  "dateAndTime": {
    "$resolver": "timestamp",
    "pattern": {
      "format": "yyyy-MM-dd HH:mm:ss"
    }
  },
  "message": {
    "$resolver": "message",
    "stringified": true
  },
  "level": {
    "$resolver": "level",
    "field": "name"
  },
  "exception": {
    "exceptionClass": {
      "$resolver": "exception",
      "field": "className"
    },
    "exceptionMessage": {
      "$resolver": "exception",
      "field": "message"
    },
    "stacktrace": {
      "$resolver": "exception",
      "field": "stackTrace",
      "stackTrace": {
        "stringified": true
      }
    }
  }
}